com\automation\pageobjects\IndexPage.class
com\automation\pageobjects\AccountCreation.class
com\automation\pageobjects\BasePage.class
com\automation\pageobjects\AuthenticationPage.class
com\automation\pageobjects\MyAccount.class
com\automation\configuration\CustomLoadableComponent.class
